{
    "success": true,
    "data": {
        "completed": false,
        "_id": "61646d7304bc000017aade09",
        "description": "reading book",
        "owner": "6008cc3e5ab46f0017b8f64e",
        "createdAt": "2021-10-11T16:59:31.129Z",
        "updatedAt": "2021-10-11T16:59:31.129Z",
        "__v": 0
    }
}
